y2q2/ComputerArchitectureAndSynthesis/week1/quartus1/simulation/qsim/week1.msim.vcd
$comment
	File created using the following command:
		vcd file week1.msim.vcd -direction
$end
$date
	Fri Nov 14 12:24:28 2025
$end
$version
	ModelSim Version 2020.1
$end
$timescale
	1ps
$end

$scope module multiplexer4_1_vhd_vec_tst $end
$var wire 1 ! d [3] $end
$var wire 1 " d [2] $end
$var wire 1 # d [1] $end
$var wire 1 $ d [0] $end
$var wire 1 % s [1] $end
$var wire 1 & s [0] $end
$var wire 1 ' y $end

$scope module i1 $end
$var wire 1 ( gnd $end
$var wire 1 ) vcc $end
$var wire 1 * unknown $end
$var wire 1 + devoe $end
$var wire 1 , devclrn $end
$var wire 1 - devpor $end
$var wire 1 . ww_devoe $end
$var wire 1 / ww_devclrn $end
$var wire 1 0 ww_devpor $end
$var wire 1 1 ww_d [3] $end
$var wire 1 2 ww_d [2] $end
$var wire 1 3 ww_d [1] $end
$var wire 1 4 ww_d [0] $end
$var wire 1 5 ww_s [1] $end
$var wire 1 6 ww_s [0] $end
$var wire 1 7 ww_y $end
$var wire 1 8 \~QUARTUS_CREATED_ADC1~_CHSEL_bus\ [4] $end
$var wire 1 9 \~QUARTUS_CREATED_ADC1~_CHSEL_bus\ [3] $end
$var wire 1 : \~QUARTUS_CREATED_ADC1~_CHSEL_bus\ [2] $end
$var wire 1 ; \~QUARTUS_CREATED_ADC1~_CHSEL_bus\ [1] $end
$var wire 1 < \~QUARTUS_CREATED_ADC1~_CHSEL_bus\ [0] $end
$var wire 1 = \~QUARTUS_CREATED_ADC2~_CHSEL_bus\ [4] $end
$var wire 1 > \~QUARTUS_CREATED_ADC2~_CHSEL_bus\ [3] $end
$var wire 1 ? \~QUARTUS_CREATED_ADC2~_CHSEL_bus\ [2] $end
$var wire 1 @ \~QUARTUS_CREATED_ADC2~_CHSEL_bus\ [1] $end
$var wire 1 A \~QUARTUS_CREATED_ADC2~_CHSEL_bus\ [0] $end
$var wire 1 B \~QUARTUS_CREATED_GND~I_combout\ $end
$var wire 1 C \~QUARTUS_CREATED_UNVM~~busy\ $end
$var wire 1 D \~QUARTUS_CREATED_ADC1~~eoc\ $end
$var wire 1 E \~QUARTUS_CREATED_ADC2~~eoc\ $end
$var wire 1 F \y~output_o\ $end
$var wire 1 G \s[1]~input_o\ $end
$var wire 1 H \d[0]~input_o\ $end
$var wire 1 I \d[1]~input_o\ $end
$var wire 1 J \s[0]~input_o\ $end
$var wire 1 K \Mux0~0_combout\ $end
$var wire 1 L \d[2]~input_o\ $end
$var wire 1 M \d[3]~input_o\ $end
$var wire 1 N \Mux0~1_combout\ $end
$upscope $end
$upscope $end
$enddefinitions $end
#0
$dumpvars
1'
0(
1)
x*
1+
1,
1-
1.
1/
10
17
0B
zC
zD
zE
1F
0G
1H
1I
0J
1K
1L
1M
1N
1!
1"
1#
1$
0%
0&
11
12
13
14
05
06
08
09
0:
0;
0<
0=
0>
0?
0@
0A
$end
#5000
0#
03
0I
#10000
0"
0$
04
02
0L
0H
0K
0N
0F
07
0'
#15000
1"
1$
14
12
1L
1H
1K
1N
1F
17
1'
#20000
0"
0$
0!
04
02
01
0M
0L
0H
0K
0N
0F
07
0'
#25000
1$
1!
14
11
1M
1H
1K
1N
1F
17
1'
#30000
0$
0!
1"
04
12
01
0M
1L
0H
0K
0N
0F
07
0'
#35000
1!
1#
13
11
1M
1I
#40000
0!
0#
1$
0"
14
03
02
01
0M
0L
0I
1H
1K
1N
1F
17
1'
#45000
1#
13
1I
#50000
0#
1!
0$
04
03
11
1M
0I
0H
0K
0N
0F
07
0'
#55000
1#
0!
13
01
0M
1I
#60000
0#
1$
14
03
0I
1H
1K
1N
1F
17
1'
#65000
1#
0$
1!
04
13
11
1M
1I
0H
0K
0N
0F
07
0'
#70000
1$
14
1H
1K
1N
1F
17
1'
#75000
0#
03
0I
#80000
1"
12
1L
#85000
0"
1#
13
02
0L
1I
#90000
0!
01
0M
#95000
0$
04
0H
0K
0N
0F
07
0'
#100000
1!
0#
1%
03
11
15
1G
1M
0I
#105000
1#
13
1I
#110000
1$
1"
14
12
1L
1H
1N
1F
17
1'
#120000
0$
0"
0#
0!
04
03
02
01
0M
0L
0I
0H
0N
0F
07
0'
#125000
1$
1"
1!
14
12
11
1M
1L
1H
1N
1F
17
1'
#130000
0"
1#
13
02
0L
1I
0N
0F
07
0'
#135000
0#
03
0I
#140000
0!
01
0M
#145000
1#
1"
13
12
1L
1I
1N
1F
17
1'
#150000
0"
02
0L
0N
0F
07
0'
#155000
1"
12
1L
1N
1F
17
1'
#160000
0#
03
0I
#165000
0"
1!
02
11
1M
0L
0N
0F
07
0'
#170000
1"
0!
1#
13
12
01
0M
1L
1I
1N
1F
17
1'
#175000
0"
0#
03
02
0L
0I
0N
0F
07
0'
#180000
1!
11
1M
#185000
1"
12
1L
1N
1F
17
1'
#190000
0!
1#
13
01
0M
1I
#195000
0"
0$
04
02
0L
0H
0N
0F
07
0'
#200000
1$
1!
14
11
1M
1H
#205000
0$
0!
1"
0#
04
03
12
01
0M
1L
0I
0H
1N
1F
17
1'
#210000
1!
0"
02
11
1M
0L
0N
0F
07
0'
#215000
1"
1$
14
12
1L
1H
1N
1F
17
1'
#220000
0$
1#
04
13
1I
0H
#225000
1$
0!
14
01
0M
1H
#230000
0$
1!
0#
04
03
11
1M
0I
0H
#235000
1$
0!
1#
14
13
01
0M
1I
1H
#240000
1!
11
1M
#245000
0#
03
0I
#250000
1#
13
1I
#255000
0"
02
0L
0N
0F
07
0'
#260000
0#
03
0I
#265000
1#
13
1I
#270000
1"
0!
12
01
0M
1L
1N
1F
17
1'
#275000
1!
0#
0$
04
03
11
1M
0I
0H
#280000
0"
02
0L
0N
0F
07
0'
#285000
1$
14
1H
#290000
0$
04
0H
#295000
0!
1#
13
01
0M
1I
#300000
0#
1$
1"
14
03
12
1L
0I
1H
1N
1F
17
1'
#305000
0"
1!
02
11
1M
0L
0N
0F
07
0'
#310000
1"
1#
1&
13
12
16
1J
1L
1I
1N
1K
1F
17
1'
#315000
0$
04
0H
#320000
1$
0"
0#
14
03
02
0L
0I
1H
#325000
0$
1"
0!
04
12
01
0M
1L
0H
0N
0F
07
0'
#330000
1$
0"
1!
1#
14
13
02
11
1M
0L
1I
1H
1N
1F
17
1'
#335000
0$
04
0H
#340000
1$
1"
0!
14
12
01
0M
1L
1H
0N
0F
07
0'
#345000
0"
0#
03
02
0L
0I
#355000
1"
1#
1!
13
12
11
1M
1L
1I
1N
1F
17
1'
#360000
0%
05
0G
#365000
0!
0$
04
01
0M
0H
#370000
1$
0"
0#
14
03
02
0L
0I
1H
0K
0N
0F
07
0'
#375000
1"
1#
1!
13
12
11
1M
1L
1I
1K
1N
1F
17
1'
#380000
0!
0$
04
01
0M
0H
#385000
0"
02
0L
#390000
1"
1!
0#
03
12
11
1M
1L
0I
0K
0N
0F
07
0'
#395000
0"
02
0L
#405000
1"
0!
1#
13
12
01
0M
1L
1I
1K
1N
1F
17
1'
#410000
1!
11
1M
#415000
0"
0#
03
02
0L
0I
0K
0N
0F
07
0'
#420000
1"
1$
14
12
1L
1H
#430000
0"
0$
04
02
0L
0H
#435000
1"
1#
0!
13
12
01
0M
1L
1I
1K
1N
1F
17
1'
#440000
0#
1$
14
03
0I
1H
0K
0N
0F
07
0'
#445000
0$
0"
04
02
0L
0H
#450000
1"
12
1L
#455000
1$
14
1H
#460000
0$
1!
04
11
1M
0H
#465000
0!
0"
1#
13
02
01
0M
0L
1I
1K
1N
1F
17
1'
#470000
1!
1"
1$
14
12
11
1M
1L
1H
#475000
0$
0#
04
03
0I
0H
0K
0N
0F
07
0'
#480000
1$
1#
0!
14
13
01
0M
1I
1H
1K
1N
1F
17
1'
#485000
0#
03
0I
0K
0N
0F
07
0'
#490000
1!
11
1M
#495000
1#
0"
13
02
0L
1I
1K
1N
1F
17
1'
#500000
0#
1"
03
12
1L
0I
0K
0N
0F
07
0'
#505000
1#
0"
0!
0$
04
13
02
01
0M
0L
1I
0H
1K
1N
1F
17
1'
#510000
1"
1$
14
12
1L
1H
#515000
0#
1!
03
11
1M
0I
0K
0N
0F
07
0'
#520000
0!
0&
01
06
0J
0M
1K
1N
1F
17
1'
#525000
0"
0$
04
02
0L
0H
0K
0N
0F
07
0'
#530000
1"
1!
12
11
1M
1L
#535000
0!
01
0M
#540000
1$
14
1H
1K
1N
1F
17
1'
#545000
0$
1#
04
13
1I
0H
0K
0N
0F
07
0'
#550000
1$
0"
14
02
0L
1H
1K
1N
1F
17
1'
#560000
0$
0#
1!
04
03
11
1M
0I
0H
0K
0N
0F
07
0'
#565000
0!
01
0M
#570000
1!
1$
14
11
1M
1H
1K
1N
1F
17
1'
#575000
0!
01
0M
#580000
0$
04
0H
0K
0N
0F
07
0'
#585000
1$
1!
1#
14
13
11
1M
1I
1H
1K
1N
1F
17
1'
#590000
0$
0#
04
03
0I
0H
0K
0N
0F
07
0'
#595000
1"
12
1L
#600000
1$
1#
14
13
1I
1H
1K
1N
1F
17
1'
#605000
0$
04
0H
0K
0N
0F
07
0'
#610000
1$
0#
0"
14
03
02
0L
0I
1H
1K
1N
1F
17
1'
#615000
1#
13
1I
#620000
0$
0!
04
01
0M
0H
0K
0N
0F
07
0'
#625000
1$
1!
1"
14
12
11
1M
1L
1H
1K
1N
1F
17
1'
#630000
0$
0"
04
02
0L
0H
0K
0N
0F
07
0'
#635000
1"
0!
0#
03
12
01
0M
1L
0I
#645000
1#
13
1I
#655000
0#
0"
1!
1$
14
03
02
11
1M
0L
0I
1H
1K
1N
1F
17
1'
#660000
1"
0$
04
12
1L
0H
0K
0N
0F
07
0'
#665000
0"
1$
14
02
0L
1H
1K
1N
1F
17
1'
#670000
1"
0$
04
12
1L
0H
0K
0N
0F
07
0'
#675000
0"
1$
14
02
0L
1H
1K
1N
1F
17
1'
#680000
0!
01
0M
#685000
1!
0$
1#
04
13
11
1M
1I
0H
0K
0N
0F
07
0'
#690000
1$
0#
14
03
0I
1H
1K
1N
1F
17
1'
#695000
0!
1"
12
01
0M
1L
#700000
1#
13
1I
#705000
0#
0"
03
02
0L
0I
#710000
1#
1"
1!
0$
04
13
12
11
1M
1L
1I
0H
0K
0N
0F
07
0'
#715000
0#
03
0I
#720000
0!
01
0M
#725000
1!
1#
1$
14
13
11
1M
1I
1H
1K
1N
1F
17
1'
#730000
0!
0#
03
01
0M
0I
#735000
1!
1#
0$
04
13
11
1M
1I
0H
0K
0N
0F
07
0'
#740000
1$
14
1H
1K
1N
1F
17
1'
#745000
0$
0#
0"
04
03
02
0L
0I
0H
0K
0N
0F
07
0'
#750000
1#
0!
13
01
0M
1I
#755000
1!
1"
12
11
1M
1L
#760000
0"
0#
03
02
0L
0I
#765000
1"
1$
14
12
1L
1H
1K
1N
1F
17
1'
#770000
0"
02
0L
#775000
1"
0$
1#
04
13
12
1L
1I
0H
0K
0N
0F
07
0'
#780000
1$
0!
14
01
0M
1H
1K
1N
1F
17
1'
#785000
0"
02
0L
#790000
1!
11
1M
#795000
0$
04
0H
0K
0N
0F
07
0'
#800000
1$
0!
14
01
0M
1H
1K
1N
1F
17
1'
#805000
1!
1"
0#
03
12
11
1M
1L
0I
#810000
0!
0"
0$
04
02
01
0M
0L
0H
0K
0N
0F
07
0'
#815000
1!
1"
12
11
1M
1L
#820000
0!
1#
13
01
0M
1I
#825000
0"
1$
14
02
0L
1H
1K
1N
1F
17
1'
#830000
1"
1!
12
11
1M
1L
#835000
0"
0$
0#
04
03
02
0L
0I
0H
0K
0N
0F
07
0'
#840000
1"
0!
12
01
0M
1L
#845000
0"
1#
13
02
0L
1I
#850000
0#
1$
14
03
0I
1H
1K
1N
1F
17
1'
#860000
1#
0$
04
13
1I
0H
0K
0N
0F
07
0'
#865000
1$
14
1H
1K
1N
1F
17
1'
#870000
0$
0#
04
03
0I
0H
0K
0N
0F
07
0'
#875000
1$
1#
1!
14
13
11
1M
1I
1H
1K
1N
1F
17
1'
#880000
0$
0#
1"
04
03
12
1L
0I
0H
0K
0N
0F
07
0'
#885000
1$
1#
0"
0!
14
13
02
01
0M
0L
1I
1H
1K
1N
1F
17
1'
#890000
0#
1"
03
12
1L
0I
#895000
0"
02
0L
#900000
1"
1#
1!
13
12
11
1M
1L
1I
#905000
0!
0$
04
01
0M
0H
0K
0N
0F
07
0'
#910000
1!
0"
02
11
1M
0L
#915000
0!
1$
14
01
0M
1H
1K
1N
1F
17
1'
#920000
1!
1"
12
11
1M
1L
#925000
0!
01
0M
#930000
0"
02
0L
#935000
1"
1!
12
11
1M
1L
#940000
0"
0!
0$
04
02
01
0M
0L
0H
0K
0N
0F
07
0'
#945000
1"
1$
14
12
1L
1H
1K
1N
1F
17
1'
#955000
0"
0$
0#
04
03
02
0L
0I
0H
0K
0N
0F
07
0'
#960000
1#
13
1I
#965000
0#
1"
1$
1!
14
03
12
11
1M
1L
0I
1H
1K
1N
1F
17
1'
#970000
1#
0$
04
13
1I
0H
0K
0N
0F
07
0'
#975000
1$
0"
14
02
0L
1H
1K
1N
1F
17
1'
#980000
0#
03
0I
#985000
1#
13
1I
#990000
1"
12
1L
#995000
0"
0#
03
02
0L
0I
