y2q2/ComputerArchitectureAndSynthesis/week1/quartus1/simulation/qsim/week1.msim.vcd
$comment
	File created using the following command:
		vcd file week1.msim.vcd -direction
$end
$date
	Fri Nov 14 19:02:54 2025
$end
$version
	ModelSim Version 2020.1
$end
$timescale
	1ps
$end

$scope module multiplexer4_1_vhd_vec_tst $end
$var wire 1 ! d [3] $end
$var wire 1 " d [2] $end
$var wire 1 # d [1] $end
$var wire 1 $ d [0] $end
$var wire 1 % sel [1] $end
$var wire 1 & sel [0] $end
$var wire 1 ' y $end

$scope module i1 $end
$var wire 1 ( gnd $end
$var wire 1 ) vcc $end
$var wire 1 * unknown $end
$var wire 1 + devoe $end
$var wire 1 , devclrn $end
$var wire 1 - devpor $end
$var wire 1 . ww_devoe $end
$var wire 1 / ww_devclrn $end
$var wire 1 0 ww_devpor $end
$var wire 1 1 ww_d [3] $end
$var wire 1 2 ww_d [2] $end
$var wire 1 3 ww_d [1] $end
$var wire 1 4 ww_d [0] $end
$var wire 1 5 ww_sel [1] $end
$var wire 1 6 ww_sel [0] $end
$var wire 1 7 ww_y $end
$var wire 1 8 \~QUARTUS_CREATED_ADC1~_CHSEL_bus\ [4] $end
$var wire 1 9 \~QUARTUS_CREATED_ADC1~_CHSEL_bus\ [3] $end
$var wire 1 : \~QUARTUS_CREATED_ADC1~_CHSEL_bus\ [2] $end
$var wire 1 ; \~QUARTUS_CREATED_ADC1~_CHSEL_bus\ [1] $end
$var wire 1 < \~QUARTUS_CREATED_ADC1~_CHSEL_bus\ [0] $end
$var wire 1 = \~QUARTUS_CREATED_ADC2~_CHSEL_bus\ [4] $end
$var wire 1 > \~QUARTUS_CREATED_ADC2~_CHSEL_bus\ [3] $end
$var wire 1 ? \~QUARTUS_CREATED_ADC2~_CHSEL_bus\ [2] $end
$var wire 1 @ \~QUARTUS_CREATED_ADC2~_CHSEL_bus\ [1] $end
$var wire 1 A \~QUARTUS_CREATED_ADC2~_CHSEL_bus\ [0] $end
$var wire 1 B \~QUARTUS_CREATED_GND~I_combout\ $end
$var wire 1 C \~QUARTUS_CREATED_UNVM~~busy\ $end
$var wire 1 D \~QUARTUS_CREATED_ADC1~~eoc\ $end
$var wire 1 E \~QUARTUS_CREATED_ADC2~~eoc\ $end
$var wire 1 F \y~output_o\ $end
$var wire 1 G \sel[1]~input_o\ $end
$var wire 1 H \d[0]~input_o\ $end
$var wire 1 I \d[1]~input_o\ $end
$var wire 1 J \sel[0]~input_o\ $end
$var wire 1 K \Mux0~0_combout\ $end
$var wire 1 L \d[2]~input_o\ $end
$var wire 1 M \d[3]~input_o\ $end
$var wire 1 N \Mux0~1_combout\ $end
$upscope $end
$upscope $end
$enddefinitions $end
#0
$dumpvars
1'
0(
1)
x*
1+
1,
1-
1.
1/
10
17
0B
zC
zD
zE
1F
0G
1H
1I
0J
1K
1L
0M
1N
0!
1"
1#
1$
0%
0&
01
12
13
14
05
06
08
09
0:
0;
0<
0=
0>
0?
0@
0A
$end
#5000
1!
0"
02
11
1M
0L
#10000
1"
0$
04
12
1L
0H
0K
0N
0F
07
0'
#15000
0"
0!
02
01
0M
0L
#20000
1$
14
1H
1K
1N
1F
17
1'
#25000
1"
1!
12
11
1M
1L
#30000
0"
0!
0#
03
02
01
0M
0L
0I
#35000
1!
0$
04
11
1M
0H
0K
0N
0F
07
0'
#50000
1$
1"
14
12
1L
1H
1K
1N
1F
17
1'
#55000
0"
1#
13
02
0L
1I
#60000
1"
0#
0$
0!
04
03
12
01
0M
1L
0I
0H
0K
0N
0F
07
0'
#65000
0"
1$
1!
14
02
11
1M
0L
1H
1K
1N
1F
17
1'
#70000
1"
0$
1#
04
13
12
1L
1I
0H
0K
0N
0F
07
0'
#75000
0"
0!
02
01
0M
0L
#80000
1!
11
1M
#85000
0!
1$
14
01
0M
1H
1K
1N
1F
17
1'
#90000
0$
1"
0#
04
03
12
1L
0I
0H
0K
0N
0F
07
0'
#95000
1$
1#
14
13
1I
1H
1K
1N
1F
17
1'
#100000
0$
0#
0"
04
03
02
0L
0I
0H
0K
0N
0F
07
0'
#105000
1$
14
1H
1K
1N
1F
17
1'
#110000
0$
1"
1!
04
12
11
1M
1L
0H
0K
0N
0F
07
0'
#115000
1$
0"
1#
14
13
02
0L
1I
1H
1K
1N
1F
17
1'
#120000
1%
15
1G
0K
0N
0F
07
0'
#125000
0$
1"
0#
04
03
12
1L
0I
0H
1N
1F
17
1'
#130000
0"
1#
13
02
0L
1I
0N
0F
07
0'
#135000
1"
1$
14
12
1L
1H
1N
1F
17
1'
#140000
0$
04
0H
#145000
0#
03
0I
#150000
1#
1$
0"
14
13
02
0L
1I
1H
0N
0F
07
0'
#155000
0$
1"
04
12
1L
0H
1N
1F
17
1'
#160000
1$
14
1H
#165000
0"
0#
03
02
0L
0I
0N
0F
07
0'
#170000
0$
0!
04
01
0M
0H
#175000
1#
13
1I
#180000
0#
1$
1!
1"
14
03
12
11
1M
1L
0I
1H
1N
1F
17
1'
#185000
0!
0"
02
01
0M
0L
0N
0F
07
0'
#190000
1!
1#
0$
04
13
11
1M
1I
0H
#195000
0!
1$
1"
14
12
01
0M
1L
1H
1N
1F
17
1'
#200000
0$
0"
04
02
0L
0H
0N
0F
07
0'
#205000
1"
1!
12
11
1M
1L
1N
1F
17
1'
#210000
0"
0!
1$
14
02
01
0M
0L
1H
0N
0F
07
0'
#215000
1"
0#
03
12
1L
0I
1N
1F
17
1'
#220000
1#
1!
0$
04
13
11
1M
1I
0H
#230000
0#
0!
03
01
0M
0I
#240000
1!
1$
14
11
1M
1H
#245000
0"
02
0L
0N
0F
07
0'
#250000
1"
0!
12
01
0M
1L
1N
1F
17
1'
#255000
0"
0$
04
02
0L
0H
0N
0F
07
0'
#260000
1!
11
1M
#265000
0!
1"
1$
1#
14
13
12
01
0M
1L
1I
1H
1N
1F
17
1'
#270000
0"
0#
03
02
0L
0I
0N
0F
07
0'
#275000
1"
1#
1!
0$
04
13
12
11
1M
1L
1I
0H
1N
1F
17
1'
#280000
0!
01
0M
#285000
1!
0#
1$
14
03
11
1M
0I
1H
#295000
0!
0"
02
01
0M
0L
0N
0F
07
0'
#300000
1"
1#
0$
1&
04
13
12
16
1J
1L
1I
0H
1N
1K
1F
0N
17
0F
1'
07
0'
#305000
0"
1$
14
02
0L
1H
#310000
0#
03
0I
#315000
1#
1"
1!
13
12
11
1M
1L
1I
1N
1F
17
1'
#320000
0!
0$
04
01
0M
0H
0N
0F
07
0'
#325000
1!
1$
0"
14
02
11
1M
0L
1H
1N
1F
17
1'
#330000
0$
1"
04
12
1L
0H
#335000
0#
03
0I
#340000
1#
0!
13
01
0M
1I
0N
0F
07
0'
#345000
1!
1$
14
11
1M
1H
1N
1F
17
1'
#350000
0$
0#
04
03
0I
0H
#355000
0"
02
0L
#360000
1$
1#
0!
14
13
01
0M
1I
1H
0N
0F
07
0'
#365000
0#
1!
03
11
1M
0I
1N
1F
17
1'
#370000
0$
1"
04
12
1L
0H
#375000
0"
1#
13
02
0L
1I
#380000
1"
0#
0!
03
12
01
0M
1L
0I
0N
0F
07
0'
#385000
1#
1!
13
11
1M
1I
1N
1F
17
1'
#390000
0#
0!
0"
03
02
01
0M
0L
0I
0N
0F
07
0'
#395000
1#
1"
1$
14
13
12
1L
1I
1H
#400000
0"
0$
04
02
0L
0H
#405000
0#
03
0I
#410000
1"
12
1L
#415000
1#
1$
14
13
1I
1H
#420000
0$
1!
04
11
1M
0H
1N
1F
17
1'
#425000
0!
0#
0"
03
02
01
0M
0L
0I
0N
0F
07
0'
#430000
1"
12
1L
#435000
1!
11
1M
1N
1F
17
1'
#440000
1$
14
1H
#445000
0$
0!
0"
04
02
01
0M
0L
0H
0N
0F
07
0'
#450000
1$
1!
1#
0%
14
13
11
05
0G
1M
1I
1H
1N
1F
17
1'
#465000
0$
1"
04
12
1L
0H
#470000
0!
01
0M
#475000
1!
0"
02
11
1M
0L
#480000
0!
01
0M
#485000
1!
1"
0#
03
12
11
1M
1L
0I
0K
0N
0F
07
0'
#490000
0!
0"
02
01
0M
0L
#495000
1!
1"
12
11
1M
1L
#500000
0!
1#
13
01
0M
1I
1K
1N
1F
17
1'
#505000
0#
0"
03
02
0L
0I
0K
0N
0F
07
0'
#510000
1#
1$
14
13
1I
1H
1K
1N
1F
17
1'
#515000
1"
1!
12
11
1M
1L
#530000
0!
0$
04
01
0M
0H
#535000
0"
02
0L
#540000
1$
14
1H
#545000
0$
1"
04
12
1L
0H
#550000
0"
1!
0#
03
02
11
1M
0L
0I
0K
0N
0F
07
0'
#555000
0!
1#
13
01
0M
1I
1K
1N
1F
17
1'
#560000
1!
1"
12
11
1M
1L
#565000
0"
0#
03
02
0L
0I
0K
0N
0F
07
0'
#570000
1"
0!
1$
14
12
01
0M
1L
1H
#575000
0$
1#
04
13
1I
0H
1K
1N
1F
17
1'
#580000
0#
1!
03
11
1M
0I
0K
0N
0F
07
0'
#585000
1#
0!
0"
13
02
01
0M
0L
1I
1K
1N
1F
17
1'
#590000
1"
1$
14
12
1L
1H
#595000
0"
0#
03
02
0L
0I
0K
0N
0F
07
0'
#600000
1"
0$
1!
04
12
11
1M
1L
0H
#605000
0"
1$
1#
14
13
02
0L
1I
1H
1K
1N
1F
17
1'
#610000
1"
0$
0#
04
03
12
1L
0I
0H
0K
0N
0F
07
0'
#615000
1$
14
1H
#620000
0$
1#
04
13
1I
0H
1K
1N
1F
17
1'
#625000
0#
0"
0!
03
02
01
0M
0L
0I
0K
0N
0F
07
0'
#635000
1"
1!
12
11
1M
1L
#640000
0!
01
0M
#645000
0"
02
0L
#650000
1"
1!
1#
13
12
11
1M
1L
1I
1K
1N
1F
17
1'
#655000
0"
1$
14
02
0L
1H
#660000
0#
03
0I
0K
0N
0F
07
0'
#665000
1#
0!
13
01
0M
1I
1K
1N
1F
17
1'
#670000
1!
1"
0&
12
11
06
0J
1M
1L
#675000
0!
0"
0#
03
02
01
0M
0L
0I
#680000
1#
0$
04
13
1I
0H
0K
0N
0F
07
0'
#685000
1$
14
1H
1K
1N
1F
17
1'
#695000
0#
1"
03
12
1L
0I
#700000
1#
0$
1!
04
13
11
1M
1I
0H
0K
0N
0F
07
0'
#705000
1$
0!
0"
14
02
01
0M
0L
1H
1K
1N
1F
17
1'
#710000
0$
1!
1"
0#
04
03
12
11
1M
1L
0I
0H
0K
0N
0F
07
0'
#715000
1$
0"
14
02
0L
1H
1K
1N
1F
17
1'
#720000
1"
0!
1#
13
12
01
0M
1L
1I
#725000
0"
1!
0$
04
02
11
1M
0L
0H
0K
0N
0F
07
0'
#730000
1"
1$
0#
14
03
12
1L
0I
1H
1K
1N
1F
17
1'
#735000
0$
1#
04
13
1I
0H
0K
0N
0F
07
0'
#745000
1$
0"
0!
14
02
01
0M
0L
1H
1K
1N
1F
17
1'
#750000
1!
11
1M
#755000
0!
0$
04
01
0M
0H
0K
0N
0F
07
0'
#760000
1!
1"
0#
03
12
11
1M
1L
0I
#765000
0!
0"
02
01
0M
0L
#770000
1"
12
1L
#775000
1$
14
1H
1K
1N
1F
17
1'
#780000
0"
1!
02
11
1M
0L
#785000
0$
04
0H
0K
0N
0F
07
0'
#790000
1$
1"
14
12
1L
1H
1K
1N
1F
17
1'
#795000
0!
1#
13
01
0M
1I
#800000
1!
0$
04
11
1M
0H
0K
0N
0F
07
0'
#805000
1$
0#
14
03
0I
1H
1K
1N
1F
17
1'
#810000
0"
02
0L
#815000
1"
12
1L
#820000
0"
0$
04
02
0L
0H
0K
0N
0F
07
0'
#825000
1#
13
1I
#830000
1"
12
1L
#835000
0!
01
0M
#840000
0"
02
0L
#845000
1"
0#
03
12
1L
0I
#850000
1$
14
1H
1K
1N
1F
17
1'
#860000
0$
1#
04
13
1I
0H
0K
0N
0F
07
0'
#865000
0#
03
0I
#870000
1#
1!
13
11
1M
1I
#875000
0#
0"
03
02
0L
0I
#880000
1#
0!
1$
14
13
01
0M
1I
1H
1K
1N
1F
17
1'
#885000
1!
11
1M
#890000
0#
0$
1"
04
03
12
1L
0I
0H
0K
0N
0F
07
0'
#895000
1#
13
1I
#900000
0#
1$
0"
0!
14
03
02
01
0M
0L
0I
1H
1K
1N
1F
17
1'
#905000
1!
11
1M
#915000
1#
13
1I
#920000
0#
0!
0$
04
03
01
0M
0I
0H
0K
0N
0F
07
0'
#925000
1#
1!
1$
1"
14
13
12
11
1M
1L
1I
1H
1K
1N
1F
17
1'
#930000
0!
0$
0"
04
02
01
0M
0L
0H
0K
0N
0F
07
0'
#935000
1"
12
1L
#940000
1!
0#
03
11
1M
0I
#945000
0!
1#
0"
13
02
01
0M
0L
1I
#950000
1!
0#
03
11
1M
0I
#955000
0!
1#
1$
14
13
01
0M
1I
1H
1K
1N
1F
17
1'
#960000
1"
12
1L
#965000
0#
0$
04
03
0I
0H
0K
0N
0F
07
0'
#970000
1#
1$
1!
14
13
11
1M
1I
1H
1K
1N
1F
17
1'
#975000
0$
0"
04
02
0L
0H
0K
0N
0F
07
0'
#980000
1$
0#
14
03
0I
1H
1K
1N
1F
17
1'
#985000
1#
13
1I
#990000
0$
1"
0!
04
12
01
0M
1L
0H
0K
0N
0F
07
0'
#995000
0#
03
0I
